^D:\VS PROJECTS\OPENGL2\OPENGL\LIB\DEVIL.LIB|D:\VS PROJECTS\OPENGL2\OPENGL\LIB\GLUT32.LIB|D:\VS PROJECTS\OPENGL2\OPENGL\LIB\ILU.LIB|D:\VS PROJECTS\OPENGL2\OPENGL\LIB\ILUT.LIB|D:\VS PROJECTS\OPENGL2\OPENGL\RELEASE\APP.OBJ|D:\VS PROJECTS\OPENGL2\OPENGL\RELEASE\ARM.OBJ|D:\VS PROJECTS\OPENGL2\OPENGL\RELEASE\ASSEMBLYLINE.OBJ|D:\VS PROJECTS\OPENGL2\OPENGL\RELEASE\BELT.OBJ|D:\VS PROJECTS\OPENGL2\OPENGL\RELEASE\BOX.OBJ|D:\VS PROJECTS\OPENGL2\OPENGL\RELEASE\BOXDATA.OBJ|D:\VS PROJECTS\OPENGL2\OPENGL\RELEASE\CYLINDER.OBJ|D:\VS PROJECTS\OPENGL2\OPENGL\RELEASE\CYLINDERDATA.OBJ|D:\VS PROJECTS\OPENGL2\OPENGL\RELEASE\FACTORY.OBJ|D:\VS PROJECTS\OPENGL2\OPENGL\RELEASE\GLEE.OBJ|D:\VS PROJECTS\OPENGL2\OPENGL\RELEASE\MAIN.OBJ|D:\VS PROJECTS\OPENGL2\OPENGL\RELEASE\SCENE.OBJ|D:\VS PROJECTS\OPENGL2\OPENGL\RELEASE\SCENELOGIC.OBJ|D:\VS PROJECTS\OPENGL2\OPENGL\RELEASE\TEXTUREMANAGER.OBJ
C:\PROGRAM FILES (X86)\WINDOWS KITS\8.0\LIB\WIN8\UM\X86\KERNEL32.LIB
C:\PROGRAM FILES (X86)\WINDOWS KITS\8.0\LIB\WIN8\UM\X86\USER32.LIB
C:\PROGRAM FILES (X86)\WINDOWS KITS\8.0\LIB\WIN8\UM\X86\GDI32.LIB
C:\PROGRAM FILES (X86)\WINDOWS KITS\8.0\LIB\WIN8\UM\X86\WINSPOOL.LIB
C:\PROGRAM FILES (X86)\WINDOWS KITS\8.0\LIB\WIN8\UM\X86\COMDLG32.LIB
C:\PROGRAM FILES (X86)\WINDOWS KITS\8.0\LIB\WIN8\UM\X86\ADVAPI32.LIB
C:\PROGRAM FILES (X86)\WINDOWS KITS\8.0\LIB\WIN8\UM\X86\SHELL32.LIB
C:\PROGRAM FILES (X86)\WINDOWS KITS\8.0\LIB\WIN8\UM\X86\OLE32.LIB
C:\PROGRAM FILES (X86)\WINDOWS KITS\8.0\LIB\WIN8\UM\X86\OLEAUT32.LIB
C:\PROGRAM FILES (X86)\WINDOWS KITS\8.0\LIB\WIN8\UM\X86\UUID.LIB
C:\PROGRAM FILES (X86)\WINDOWS KITS\8.0\LIB\WIN8\UM\X86\ODBC32.LIB
C:\PROGRAM FILES (X86)\WINDOWS KITS\8.0\LIB\WIN8\UM\X86\ODBCCP32.LIB
D:\VS PROJECTS\OPENGL2\OPENGL\RELEASE\GLEE.OBJ
D:\VS PROJECTS\OPENGL2\OPENGL\RELEASE\APP.OBJ
D:\VS PROJECTS\OPENGL2\OPENGL\RELEASE\SCENE.OBJ
D:\VS PROJECTS\OPENGL2\OPENGL\RELEASE\ARM.OBJ
D:\VS PROJECTS\OPENGL2\OPENGL\RELEASE\ASSEMBLYLINE.OBJ
D:\VS PROJECTS\OPENGL2\OPENGL\RELEASE\BELT.OBJ
D:\VS PROJECTS\OPENGL2\OPENGL\RELEASE\FACTORY.OBJ
D:\VS PROJECTS\OPENGL2\OPENGL\RELEASE\SCENELOGIC.OBJ
D:\VS PROJECTS\OPENGL2\OPENGL\RELEASE\MAIN.OBJ
D:\VS PROJECTS\OPENGL2\OPENGL\RELEASE\BOX.OBJ
D:\VS PROJECTS\OPENGL2\OPENGL\RELEASE\CYLINDER.OBJ
D:\VS PROJECTS\OPENGL2\OPENGL\RELEASE\BOXDATA.OBJ
D:\VS PROJECTS\OPENGL2\OPENGL\RELEASE\CYLINDERDATA.OBJ
D:\VS PROJECTS\OPENGL2\OPENGL\RELEASE\TEXTUREMANAGER.OBJ
D:\VS PROJECTS\OPENGL2\OPENGL\LIB\DEVIL.LIB
D:\VS PROJECTS\OPENGL2\OPENGL\LIB\GLUT32.LIB
D:\VS PROJECTS\OPENGL2\OPENGL\LIB\ILU.LIB
D:\VS PROJECTS\OPENGL2\OPENGL\LIB\ILUT.LIB
C:\WINDOWS\GLOBALIZATION\SORTING\SORTDEFAULT.NLS
D:\MICROSOFT VISUAL STUDIO 11.0\VC\BIN\C2.DLL
D:\MICROSOFT VISUAL STUDIO 11.0\VC\LIB\MSVCRT.LIB
D:\MICROSOFT VISUAL STUDIO 11.0\VC\LIB\OLDNAMES.LIB
D:\MICROSOFT VISUAL STUDIO 11.0\VC\LIB\MSVCPRT.LIB
C:\PROGRAM FILES (X86)\WINDOWS KITS\8.0\LIB\WIN8\UM\X86\WINMM.LIB
C:\PROGRAM FILES (X86)\WINDOWS KITS\8.0\LIB\WIN8\UM\X86\OPENGL32.LIB
C:\PROGRAM FILES (X86)\WINDOWS KITS\8.0\LIB\WIN8\UM\X86\GLU32.LIB
D:\MICROSOFT VISUAL STUDIO 11.0\VC\BIN\1033\LINKUI.DLL
C:\PROGRAM FILES (X86)\WINDOWS KITS\8.0\BIN\X86\RC.EXE
D:\MICROSOFT VISUAL STUDIO 11.0\VC\BIN\CVTRES.EXE
C:\WINDOWS\SYSTEM32\TZRES.DLL
C:\WINDOWS\SYSTEM32\RSAENH.DLL
^D:\VS PROJECTS\OPENGL3\OPENGL\LIB\DEVIL.LIB|D:\VS PROJECTS\OPENGL3\OPENGL\LIB\GLUT32.LIB|D:\VS PROJECTS\OPENGL3\OPENGL\LIB\ILU.LIB|D:\VS PROJECTS\OPENGL3\OPENGL\LIB\ILUT.LIB|D:\VS PROJECTS\OPENGL3\OPENGL\RELEASE\APP.OBJ|D:\VS PROJECTS\OPENGL3\OPENGL\RELEASE\ARM.OBJ|D:\VS PROJECTS\OPENGL3\OPENGL\RELEASE\ASSEMBLYLINE.OBJ|D:\VS PROJECTS\OPENGL3\OPENGL\RELEASE\BELT.OBJ|D:\VS PROJECTS\OPENGL3\OPENGL\RELEASE\BOX.OBJ|D:\VS PROJECTS\OPENGL3\OPENGL\RELEASE\BOXDATA.OBJ|D:\VS PROJECTS\OPENGL3\OPENGL\RELEASE\CYLINDER.OBJ|D:\VS PROJECTS\OPENGL3\OPENGL\RELEASE\CYLINDERDATA.OBJ|D:\VS PROJECTS\OPENGL3\OPENGL\RELEASE\FACTORY.OBJ|D:\VS PROJECTS\OPENGL3\OPENGL\RELEASE\MAIN.OBJ|D:\VS PROJECTS\OPENGL3\OPENGL\RELEASE\SCENE.OBJ|D:\VS PROJECTS\OPENGL3\OPENGL\RELEASE\SCENELOGIC.OBJ|D:\VS PROJECTS\OPENGL3\OPENGL\RELEASE\TEXTUREMANAGER.OBJ
C:\PROGRAM FILES (X86)\WINDOWS KITS\8.0\LIB\WIN8\UM\X86\KERNEL32.LIB
C:\PROGRAM FILES (X86)\WINDOWS KITS\8.0\LIB\WIN8\UM\X86\USER32.LIB
C:\PROGRAM FILES (X86)\WINDOWS KITS\8.0\LIB\WIN8\UM\X86\GDI32.LIB
C:\PROGRAM FILES (X86)\WINDOWS KITS\8.0\LIB\WIN8\UM\X86\WINSPOOL.LIB
C:\PROGRAM FILES (X86)\WINDOWS KITS\8.0\LIB\WIN8\UM\X86\COMDLG32.LIB
C:\PROGRAM FILES (X86)\WINDOWS KITS\8.0\LIB\WIN8\UM\X86\ADVAPI32.LIB
C:\PROGRAM FILES (X86)\WINDOWS KITS\8.0\LIB\WIN8\UM\X86\SHELL32.LIB
C:\PROGRAM FILES (X86)\WINDOWS KITS\8.0\LIB\WIN8\UM\X86\OLE32.LIB
C:\PROGRAM FILES (X86)\WINDOWS KITS\8.0\LIB\WIN8\UM\X86\OLEAUT32.LIB
C:\PROGRAM FILES (X86)\WINDOWS KITS\8.0\LIB\WIN8\UM\X86\UUID.LIB
C:\PROGRAM FILES (X86)\WINDOWS KITS\8.0\LIB\WIN8\UM\X86\ODBC32.LIB
C:\PROGRAM FILES (X86)\WINDOWS KITS\8.0\LIB\WIN8\UM\X86\ODBCCP32.LIB
D:\VS PROJECTS\OPENGL3\OPENGL\RELEASE\APP.OBJ
D:\VS PROJECTS\OPENGL3\OPENGL\RELEASE\SCENE.OBJ
D:\VS PROJECTS\OPENGL3\OPENGL\RELEASE\ARM.OBJ
D:\VS PROJECTS\OPENGL3\OPENGL\RELEASE\ASSEMBLYLINE.OBJ
D:\VS PROJECTS\OPENGL3\OPENGL\RELEASE\BELT.OBJ
D:\VS PROJECTS\OPENGL3\OPENGL\RELEASE\FACTORY.OBJ
D:\VS PROJECTS\OPENGL3\OPENGL\RELEASE\SCENELOGIC.OBJ
D:\VS PROJECTS\OPENGL3\OPENGL\RELEASE\MAIN.OBJ
D:\VS PROJECTS\OPENGL3\OPENGL\RELEASE\BOX.OBJ
D:\VS PROJECTS\OPENGL3\OPENGL\RELEASE\CYLINDER.OBJ
D:\VS PROJECTS\OPENGL3\OPENGL\RELEASE\BOXDATA.OBJ
D:\VS PROJECTS\OPENGL3\OPENGL\RELEASE\CYLINDERDATA.OBJ
D:\VS PROJECTS\OPENGL3\OPENGL\RELEASE\TEXTUREMANAGER.OBJ
D:\VS PROJECTS\OPENGL3\OPENGL\LIB\DEVIL.LIB
D:\VS PROJECTS\OPENGL3\OPENGL\LIB\GLUT32.LIB
D:\VS PROJECTS\OPENGL3\OPENGL\LIB\ILU.LIB
D:\VS PROJECTS\OPENGL3\OPENGL\LIB\ILUT.LIB
C:\WINDOWS\GLOBALIZATION\SORTING\SORTDEFAULT.NLS
D:\MICROSOFT VISUAL STUDIO 11.0\VC\BIN\C2.DLL
C:\PROGRAM FILES (X86)\WINDOWS KITS\8.0\LIB\WIN8\UM\X86\WINMM.LIB
C:\PROGRAM FILES (X86)\WINDOWS KITS\8.0\LIB\WIN8\UM\X86\OPENGL32.LIB
C:\PROGRAM FILES (X86)\WINDOWS KITS\8.0\LIB\WIN8\UM\X86\GLU32.LIB
D:\MICROSOFT VISUAL STUDIO 11.0\VC\LIB\MSVCPRT.LIB
D:\MICROSOFT VISUAL STUDIO 11.0\VC\LIB\MSVCRT.LIB
D:\MICROSOFT VISUAL STUDIO 11.0\VC\LIB\OLDNAMES.LIB
D:\MICROSOFT VISUAL STUDIO 11.0\VC\BIN\1033\LINKUI.DLL
C:\PROGRAM FILES (X86)\WINDOWS KITS\8.0\BIN\X86\RC.EXE
D:\MICROSOFT VISUAL STUDIO 11.0\VC\BIN\CVTRES.EXE
C:\WINDOWS\SYSTEM32\TZRES.DLL
C:\WINDOWS\SYSTEM32\RSAENH.DLL
^D:\VS PROJECTS\BITBUCKET\OPENGL\OPENGL\LIB\DEVIL.LIB|D:\VS PROJECTS\BITBUCKET\OPENGL\OPENGL\LIB\GLUT32.LIB|D:\VS PROJECTS\BITBUCKET\OPENGL\OPENGL\LIB\ILU.LIB|D:\VS PROJECTS\BITBUCKET\OPENGL\OPENGL\LIB\ILUT.LIB|D:\VS PROJECTS\BITBUCKET\OPENGL\OPENGL\RELEASE\APP.OBJ|D:\VS PROJECTS\BITBUCKET\OPENGL\OPENGL\RELEASE\ARM.OBJ|D:\VS PROJECTS\BITBUCKET\OPENGL\OPENGL\RELEASE\ASSEMBLYLINE.OBJ|D:\VS PROJECTS\BITBUCKET\OPENGL\OPENGL\RELEASE\BELT.OBJ|D:\VS PROJECTS\BITBUCKET\OPENGL\OPENGL\RELEASE\BOX.OBJ|D:\VS PROJECTS\BITBUCKET\OPENGL\OPENGL\RELEASE\BOXDATA.OBJ|D:\VS PROJECTS\BITBUCKET\OPENGL\OPENGL\RELEASE\CYLINDER.OBJ|D:\VS PROJECTS\BITBUCKET\OPENGL\OPENGL\RELEASE\CYLINDERDATA.OBJ|D:\VS PROJECTS\BITBUCKET\OPENGL\OPENGL\RELEASE\FACTORY.OBJ|D:\VS PROJECTS\BITBUCKET\OPENGL\OPENGL\RELEASE\MAIN.OBJ|D:\VS PROJECTS\BITBUCKET\OPENGL\OPENGL\RELEASE\SCENE.OBJ|D:\VS PROJECTS\BITBUCKET\OPENGL\OPENGL\RELEASE\SCENELOGIC.OBJ|D:\VS PROJECTS\BITBUCKET\OPENGL\OPENGL\RELEASE\TEXTUREMANAGER.OBJ
C:\PROGRAM FILES (X86)\WINDOWS KITS\8.0\LIB\WIN8\UM\X86\KERNEL32.LIB
C:\PROGRAM FILES (X86)\WINDOWS KITS\8.0\LIB\WIN8\UM\X86\USER32.LIB
C:\PROGRAM FILES (X86)\WINDOWS KITS\8.0\LIB\WIN8\UM\X86\GDI32.LIB
C:\PROGRAM FILES (X86)\WINDOWS KITS\8.0\LIB\WIN8\UM\X86\WINSPOOL.LIB
C:\PROGRAM FILES (X86)\WINDOWS KITS\8.0\LIB\WIN8\UM\X86\COMDLG32.LIB
C:\PROGRAM FILES (X86)\WINDOWS KITS\8.0\LIB\WIN8\UM\X86\ADVAPI32.LIB
C:\PROGRAM FILES (X86)\WINDOWS KITS\8.0\LIB\WIN8\UM\X86\SHELL32.LIB
C:\PROGRAM FILES (X86)\WINDOWS KITS\8.0\LIB\WIN8\UM\X86\OLE32.LIB
C:\PROGRAM FILES (X86)\WINDOWS KITS\8.0\LIB\WIN8\UM\X86\OLEAUT32.LIB
C:\PROGRAM FILES (X86)\WINDOWS KITS\8.0\LIB\WIN8\UM\X86\UUID.LIB
C:\PROGRAM FILES (X86)\WINDOWS KITS\8.0\LIB\WIN8\UM\X86\ODBC32.LIB
C:\PROGRAM FILES (X86)\WINDOWS KITS\8.0\LIB\WIN8\UM\X86\ODBCCP32.LIB
D:\VS PROJECTS\BITBUCKET\OPENGL\OPENGL\RELEASE\APP.OBJ
D:\VS PROJECTS\BITBUCKET\OPENGL\OPENGL\RELEASE\SCENE.OBJ
D:\VS PROJECTS\BITBUCKET\OPENGL\OPENGL\RELEASE\ARM.OBJ
D:\VS PROJECTS\BITBUCKET\OPENGL\OPENGL\RELEASE\ASSEMBLYLINE.OBJ
D:\VS PROJECTS\BITBUCKET\OPENGL\OPENGL\RELEASE\BELT.OBJ
D:\VS PROJECTS\BITBUCKET\OPENGL\OPENGL\RELEASE\FACTORY.OBJ
D:\VS PROJECTS\BITBUCKET\OPENGL\OPENGL\RELEASE\SCENELOGIC.OBJ
D:\VS PROJECTS\BITBUCKET\OPENGL\OPENGL\RELEASE\MAIN.OBJ
D:\VS PROJECTS\BITBUCKET\OPENGL\OPENGL\RELEASE\BOX.OBJ
D:\VS PROJECTS\BITBUCKET\OPENGL\OPENGL\RELEASE\CYLINDER.OBJ
D:\VS PROJECTS\BITBUCKET\OPENGL\OPENGL\RELEASE\BOXDATA.OBJ
D:\VS PROJECTS\BITBUCKET\OPENGL\OPENGL\RELEASE\CYLINDERDATA.OBJ
D:\VS PROJECTS\BITBUCKET\OPENGL\OPENGL\RELEASE\TEXTUREMANAGER.OBJ
D:\VS PROJECTS\BITBUCKET\OPENGL\OPENGL\LIB\DEVIL.LIB
D:\VS PROJECTS\BITBUCKET\OPENGL\OPENGL\LIB\GLUT32.LIB
D:\VS PROJECTS\BITBUCKET\OPENGL\OPENGL\LIB\ILU.LIB
D:\VS PROJECTS\BITBUCKET\OPENGL\OPENGL\LIB\ILUT.LIB
C:\WINDOWS\GLOBALIZATION\SORTING\SORTDEFAULT.NLS
D:\MICROSOFT VISUAL STUDIO 11.0\VC\BIN\C2.DLL
C:\PROGRAM FILES (X86)\WINDOWS KITS\8.0\LIB\WIN8\UM\X86\WINMM.LIB
C:\PROGRAM FILES (X86)\WINDOWS KITS\8.0\LIB\WIN8\UM\X86\OPENGL32.LIB
C:\PROGRAM FILES (X86)\WINDOWS KITS\8.0\LIB\WIN8\UM\X86\GLU32.LIB
D:\MICROSOFT VISUAL STUDIO 11.0\VC\LIB\MSVCPRT.LIB
D:\MICROSOFT VISUAL STUDIO 11.0\VC\LIB\MSVCRT.LIB
D:\MICROSOFT VISUAL STUDIO 11.0\VC\LIB\OLDNAMES.LIB
D:\MICROSOFT VISUAL STUDIO 11.0\VC\BIN\1033\LINKUI.DLL
C:\PROGRAM FILES (X86)\WINDOWS KITS\8.0\BIN\X86\RC.EXE
D:\MICROSOFT VISUAL STUDIO 11.0\VC\BIN\CVTRES.EXE
C:\WINDOWS\SYSTEM32\TZRES.DLL
C:\WINDOWS\SYSTEM32\RSAENH.DLL
