^C:\USERS\KONRAD\DESKTOP\OPENGL2\OPENGL\LIB\DEVIL.LIB|C:\USERS\KONRAD\DESKTOP\OPENGL2\OPENGL\LIB\GLUT32.LIB|C:\USERS\KONRAD\DESKTOP\OPENGL2\OPENGL\LIB\ILU.LIB|C:\USERS\KONRAD\DESKTOP\OPENGL2\OPENGL\LIB\ILUT.LIB|C:\USERS\KONRAD\DESKTOP\OPENGL2\OPENGL\RELEASE\APP.OBJ|C:\USERS\KONRAD\DESKTOP\OPENGL2\OPENGL\RELEASE\ARM.OBJ|C:\USERS\KONRAD\DESKTOP\OPENGL2\OPENGL\RELEASE\ASSEMBLYLINE.OBJ|C:\USERS\KONRAD\DESKTOP\OPENGL2\OPENGL\RELEASE\BELT.OBJ|C:\USERS\KONRAD\DESKTOP\OPENGL2\OPENGL\RELEASE\BOX.OBJ|C:\USERS\KONRAD\DESKTOP\OPENGL2\OPENGL\RELEASE\BOXDATA.OBJ|C:\USERS\KONRAD\DESKTOP\OPENGL2\OPENGL\RELEASE\CYLINDER.OBJ|C:\USERS\KONRAD\DESKTOP\OPENGL2\OPENGL\RELEASE\CYLINDERDATA.OBJ|C:\USERS\KONRAD\DESKTOP\OPENGL2\OPENGL\RELEASE\FACTORY.OBJ|C:\USERS\KONRAD\DESKTOP\OPENGL2\OPENGL\RELEASE\GLEE.OBJ|C:\USERS\KONRAD\DESKTOP\OPENGL2\OPENGL\RELEASE\MAIN.OBJ|C:\USERS\KONRAD\DESKTOP\OPENGL2\OPENGL\RELEASE\SCENE.OBJ|C:\USERS\KONRAD\DESKTOP\OPENGL2\OPENGL\RELEASE\SCENELOGIC.OBJ|C:\USERS\KONRAD\DESKTOP\OPENGL2\OPENGL\RELEASE\TEXTUREMANAGER.OBJ
/OUT:"C:\USERS\KONRAD\DESKTOP\OPENGL2\RELEASE\OPENGL.EXE" /INCREMENTAL:NO /NOLOGO kernel32.lib user32.lib gdi32.lib winspool.lib comdlg32.lib advapi32.lib shell32.lib ole32.lib oleaut32.lib uuid.lib odbc32.lib odbccp32.lib /MANIFEST /MANIFESTUAC:"level='asInvoker' uiAccess='false'" /manifest:embed /DEBUG /PDB:"C:\USERS\KONRAD\DESKTOP\OPENGL2\RELEASE\OPENGL.PDB" /SUBSYSTEM:CONSOLE /OPT:REF /OPT:ICF /LTCG /TLBID:1 /DYNAMICBASE /NXCOMPAT /IMPLIB:"C:\USERS\KONRAD\DESKTOP\OPENGL2\RELEASE\OPENGL.LIB" /MACHINE:X86 /SAFESEH RELEASE\GLEE.OBJRELEASE\APP.OBJRELEASE\SCENE.OBJRELEASE\ARM.OBJRELEASE\ASSEMBLYLINE.OBJRELEASE\BELT.OBJRELEASE\FACTORY.OBJRELEASE\SCENELOGIC.OBJRELEASE\MAIN.OBJRELEASE\BOX.OBJRELEASE\CYLINDER.OBJRELEASE\BOXDATA.OBJRELEASE\CYLINDERDATA.OBJRELEASE\TEXTUREMANAGER.OBJLIB\DEVIL.LIBLIB\GLUT32.LIBLIB\ILU.LIBLIB\ILUT.LIB
^D:\VS PROJECTS\OPENGL2\OPENGL\LIB\DEVIL.LIB|D:\VS PROJECTS\OPENGL2\OPENGL\LIB\GLUT32.LIB|D:\VS PROJECTS\OPENGL2\OPENGL\LIB\ILU.LIB|D:\VS PROJECTS\OPENGL2\OPENGL\LIB\ILUT.LIB|D:\VS PROJECTS\OPENGL2\OPENGL\RELEASE\APP.OBJ|D:\VS PROJECTS\OPENGL2\OPENGL\RELEASE\ARM.OBJ|D:\VS PROJECTS\OPENGL2\OPENGL\RELEASE\ASSEMBLYLINE.OBJ|D:\VS PROJECTS\OPENGL2\OPENGL\RELEASE\BELT.OBJ|D:\VS PROJECTS\OPENGL2\OPENGL\RELEASE\BOX.OBJ|D:\VS PROJECTS\OPENGL2\OPENGL\RELEASE\BOXDATA.OBJ|D:\VS PROJECTS\OPENGL2\OPENGL\RELEASE\CYLINDER.OBJ|D:\VS PROJECTS\OPENGL2\OPENGL\RELEASE\CYLINDERDATA.OBJ|D:\VS PROJECTS\OPENGL2\OPENGL\RELEASE\FACTORY.OBJ|D:\VS PROJECTS\OPENGL2\OPENGL\RELEASE\GLEE.OBJ|D:\VS PROJECTS\OPENGL2\OPENGL\RELEASE\MAIN.OBJ|D:\VS PROJECTS\OPENGL2\OPENGL\RELEASE\SCENE.OBJ|D:\VS PROJECTS\OPENGL2\OPENGL\RELEASE\SCENELOGIC.OBJ|D:\VS PROJECTS\OPENGL2\OPENGL\RELEASE\TEXTUREMANAGER.OBJ
/OUT:"D:\VS PROJECTS\OPENGL2\RELEASE\OPENGL.EXE" /INCREMENTAL:NO /NOLOGO kernel32.lib user32.lib gdi32.lib winspool.lib comdlg32.lib advapi32.lib shell32.lib ole32.lib oleaut32.lib uuid.lib odbc32.lib odbccp32.lib /MANIFEST /MANIFESTUAC:"level='asInvoker' uiAccess='false'" /manifest:embed /DEBUG /PDB:"D:\VS PROJECTS\OPENGL2\RELEASE\OPENGL.PDB" /SUBSYSTEM:CONSOLE /OPT:REF /OPT:ICF /LTCG /TLBID:1 /DYNAMICBASE /NXCOMPAT /IMPLIB:"D:\VS PROJECTS\OPENGL2\RELEASE\OPENGL.LIB" /MACHINE:X86 /SAFESEH RELEASE\GLEE.OBJRELEASE\APP.OBJRELEASE\SCENE.OBJRELEASE\ARM.OBJRELEASE\ASSEMBLYLINE.OBJRELEASE\BELT.OBJRELEASE\FACTORY.OBJRELEASE\SCENELOGIC.OBJRELEASE\MAIN.OBJRELEASE\BOX.OBJRELEASE\CYLINDER.OBJRELEASE\BOXDATA.OBJRELEASE\CYLINDERDATA.OBJRELEASE\TEXTUREMANAGER.OBJLIB\DEVIL.LIBLIB\GLUT32.LIBLIB\ILU.LIBLIB\ILUT.LIB
^D:\VS PROJECTS\OPENGL3\OPENGL\LIB\DEVIL.LIB|D:\VS PROJECTS\OPENGL3\OPENGL\LIB\GLUT32.LIB|D:\VS PROJECTS\OPENGL3\OPENGL\LIB\ILU.LIB|D:\VS PROJECTS\OPENGL3\OPENGL\LIB\ILUT.LIB|D:\VS PROJECTS\OPENGL3\OPENGL\RELEASE\APP.OBJ|D:\VS PROJECTS\OPENGL3\OPENGL\RELEASE\ARM.OBJ|D:\VS PROJECTS\OPENGL3\OPENGL\RELEASE\ASSEMBLYLINE.OBJ|D:\VS PROJECTS\OPENGL3\OPENGL\RELEASE\BELT.OBJ|D:\VS PROJECTS\OPENGL3\OPENGL\RELEASE\BOX.OBJ|D:\VS PROJECTS\OPENGL3\OPENGL\RELEASE\BOXDATA.OBJ|D:\VS PROJECTS\OPENGL3\OPENGL\RELEASE\CYLINDER.OBJ|D:\VS PROJECTS\OPENGL3\OPENGL\RELEASE\CYLINDERDATA.OBJ|D:\VS PROJECTS\OPENGL3\OPENGL\RELEASE\FACTORY.OBJ|D:\VS PROJECTS\OPENGL3\OPENGL\RELEASE\MAIN.OBJ|D:\VS PROJECTS\OPENGL3\OPENGL\RELEASE\SCENE.OBJ|D:\VS PROJECTS\OPENGL3\OPENGL\RELEASE\SCENELOGIC.OBJ|D:\VS PROJECTS\OPENGL3\OPENGL\RELEASE\TEXTUREMANAGER.OBJ
/OUT:"D:\VS PROJECTS\OPENGL3\RELEASE\OPENGL.EXE" /INCREMENTAL:NO /NOLOGO kernel32.lib user32.lib gdi32.lib winspool.lib comdlg32.lib advapi32.lib shell32.lib ole32.lib oleaut32.lib uuid.lib odbc32.lib odbccp32.lib /MANIFEST /MANIFESTUAC:"level='asInvoker' uiAccess='false'" /manifest:embed /DEBUG /PDB:"D:\VS PROJECTS\OPENGL3\RELEASE\OPENGL.PDB" /SUBSYSTEM:CONSOLE /OPT:REF /OPT:ICF /LTCG /TLBID:1 /DYNAMICBASE /NXCOMPAT /IMPLIB:"D:\VS PROJECTS\OPENGL3\RELEASE\OPENGL.LIB" /MACHINE:X86 /SAFESEH:NO RELEASE\APP.OBJRELEASE\SCENE.OBJRELEASE\ARM.OBJRELEASE\ASSEMBLYLINE.OBJRELEASE\BELT.OBJRELEASE\FACTORY.OBJRELEASE\SCENELOGIC.OBJRELEASE\MAIN.OBJRELEASE\BOX.OBJRELEASE\CYLINDER.OBJRELEASE\BOXDATA.OBJRELEASE\CYLINDERDATA.OBJRELEASE\TEXTUREMANAGER.OBJLIB\DEVIL.LIBLIB\GLUT32.LIBLIB\ILU.LIBLIB\ILUT.LIB
^D:\VS PROJECTS\BITBUCKET\OPENGL\OPENGL\LIB\DEVIL.LIB|D:\VS PROJECTS\BITBUCKET\OPENGL\OPENGL\LIB\GLUT32.LIB|D:\VS PROJECTS\BITBUCKET\OPENGL\OPENGL\LIB\ILU.LIB|D:\VS PROJECTS\BITBUCKET\OPENGL\OPENGL\LIB\ILUT.LIB|D:\VS PROJECTS\BITBUCKET\OPENGL\OPENGL\RELEASE\APP.OBJ|D:\VS PROJECTS\BITBUCKET\OPENGL\OPENGL\RELEASE\ARM.OBJ|D:\VS PROJECTS\BITBUCKET\OPENGL\OPENGL\RELEASE\ASSEMBLYLINE.OBJ|D:\VS PROJECTS\BITBUCKET\OPENGL\OPENGL\RELEASE\BELT.OBJ|D:\VS PROJECTS\BITBUCKET\OPENGL\OPENGL\RELEASE\BOX.OBJ|D:\VS PROJECTS\BITBUCKET\OPENGL\OPENGL\RELEASE\BOXDATA.OBJ|D:\VS PROJECTS\BITBUCKET\OPENGL\OPENGL\RELEASE\CYLINDER.OBJ|D:\VS PROJECTS\BITBUCKET\OPENGL\OPENGL\RELEASE\CYLINDERDATA.OBJ|D:\VS PROJECTS\BITBUCKET\OPENGL\OPENGL\RELEASE\FACTORY.OBJ|D:\VS PROJECTS\BITBUCKET\OPENGL\OPENGL\RELEASE\MAIN.OBJ|D:\VS PROJECTS\BITBUCKET\OPENGL\OPENGL\RELEASE\SCENE.OBJ|D:\VS PROJECTS\BITBUCKET\OPENGL\OPENGL\RELEASE\SCENELOGIC.OBJ|D:\VS PROJECTS\BITBUCKET\OPENGL\OPENGL\RELEASE\TEXTUREMANAGER.OBJ
/OUT:"D:\VS PROJECTS\BITBUCKET\OPENGL\RELEASE\OPENGL.EXE" /INCREMENTAL:NO /NOLOGO kernel32.lib user32.lib gdi32.lib winspool.lib comdlg32.lib advapi32.lib shell32.lib ole32.lib oleaut32.lib uuid.lib odbc32.lib odbccp32.lib /MANIFEST /MANIFESTUAC:"level='asInvoker' uiAccess='false'" /manifest:embed /DEBUG /PDB:"D:\VS PROJECTS\BITBUCKET\OPENGL\RELEASE\OPENGL.PDB" /SUBSYSTEM:CONSOLE /OPT:REF /OPT:ICF /LTCG /TLBID:1 /DYNAMICBASE /NXCOMPAT /IMPLIB:"D:\VS PROJECTS\BITBUCKET\OPENGL\RELEASE\OPENGL.LIB" /MACHINE:X86 /SAFESEH:NO RELEASE\APP.OBJRELEASE\SCENE.OBJRELEASE\ARM.OBJRELEASE\ASSEMBLYLINE.OBJRELEASE\BELT.OBJRELEASE\FACTORY.OBJRELEASE\SCENELOGIC.OBJRELEASE\MAIN.OBJRELEASE\BOX.OBJRELEASE\CYLINDER.OBJRELEASE\BOXDATA.OBJRELEASE\CYLINDERDATA.OBJRELEASE\TEXTUREMANAGER.OBJLIB\DEVIL.LIBLIB\GLUT32.LIBLIB\ILU.LIBLIB\ILUT.LIB
